1
#include <iostream>
using namespace std;

int main(){
    int Array[5];
    for (int i = 0; i < 5; i++){
        cout<<"value of array:"<<i<<" is : "<<Array[i];
    }
    return 0;
}


2
#include <iostream>
using namespace std;

int main(){
    int Array[5];
    for (int i = 0; i < 5; i++){
      do{
        cout<<"Input value of array:"<<i;
        cout>>Array[i];
      }while(Array[i] > 0);
    }
    for (int i = 0; i < 5; i++){
        cout<<"value of array:"<<i<<" is : "<<Array[i];
    }
    return 0;
}


3
#include <iostream>
using namespace std;

int main(){
    float Array[12];
    for (int i = 0; i < 12; i++){
        cout<<"Input THOUSANDS OF RUPEES of array:"<<i;
        cout>>Array[i];
        sum = sum + Array[i];     
    }
    avg = sum / 12;
    cout<<"average sales is: ";
    return 0;
}

4
#include <iostream>
using namespace std;

int main(){
    int Array[12];
    int small = 99999, high = 0;
    for (int i = 0; i < 12; i++){
        cout<<" INPUT INTEGER : "<<i<<endl;
        cin>>Array[i];    
    }
    for (int i = 0; i < 12; i++){
        if ( Array[i] > high ){
            high = Array[i];
        }
        if ( Array[i] < small ){
            small = Array[i];
        }     
    }
    cout<<"Highest is: "<<high<<" and smallest is : "<<small;
    return 0;
}

5
#include <iostream>


using namespace std;


int main()
{

	int days[]={31,28,31,30,31,30,31,31,30,31,30,31};

	return 0;

}

6
#include <iostream>


using namespace std;


int main()
{

	int days[]={31,28,31,30,31,30,31,31,30,31,30,31};

	float monthly, daily;


	cout<<"INPUT Monthly Salary: ";

	cin>>monthly;


	for (int i=0; i<12; i++)

	{

                daily = monthly/days[i];
		cout<<"Daily Average for month "<<i+1<<": "<<daily<<endl;

	}


	return 0;

}

7
#include <iostream>


using namespace std;


int main()
{

	int days[]={31,28,31,30,31,30,31,31,30,31,30,31};

	float monthly, daily;


	cout<<"INPUT Daily Income : ";

	cin>>daily;


	for (int i=0; i<12; i++)

	{

                monthly = daily*days[i];
		cout<<"Daily Average for month "<<i+1<<": "<<monthly<<endl;

	}


	return 0;

}


8
#include <iostream>
using namespace std;
int main()
{

    int days[]={31,28,31,30,31,30,31,31,30,31,30,31};
    float monthly, daily;
    int choice;
    do{
       cout<<"***********************************"<<endl;
       cout<<"1.Do Daily Income"<<endl;
       cout<<"2.Exit"<<endl;
       cout<<"INPUT CHOICE: "<<endl;
       cin>>choice;
       switch (choice){
          case 1 : cout<<"INPUT Daily Income : "<<endl;
                   cin>>daily;
	               for (int i=0; i<12; i++)
	               {
                        monthly = daily*days[i];
                        cout<<"Daily Average for month "<<i+1<<": "<<monthly<<endl;
	               }
                   break;
          default  : cout<<"ERROR----No is not 1 or 2"<<endl;
                     break;

       }

    }while(choice != 2);

  	return 0;

}

9
#include <iostream>
using namespace std;
int main(){
    int group[15], age;
    for(int i = 0; i<15; i++){
        group[i] = 0;
    }
    do{
       cout<<"INPUT age of a person"<<endl;
       cin>>age;
       if (age >= 0 && age <= 5){
          group[1] += 1;
       }
       else if (age >= 6 && age <= 10){
             group[2] += 1;
       }
       else if (age > 10 && age <= 15){
             group[3] += 1;
       }
       else if (age >= 16 && age <= 20){
             group[4] += 1;
       }
       else if (age > 20 && age <= 25){
             group[5] += 1;
       }
       else if (age >= 26 && age <= 30){
             group[6] += 1;
       }
       else if (age > 30 && age <= 35){
             group[7] += 1;
       }
       else if (age >= 36 && age <= 40){
             group[8] += 1;
       }
       else if (age > 40 && age <= 45){
             group[9] += 1;
       }
       else if (age >= 46 && age <= 50){
             group[10] += 1;
       }
       else if (age > 50 && age <= 55){
             group[11] += 1;
       }
       else if (age >= 56 && age <= 60){
             group[12] += 1;
       }
       else if (age > 60 && age <= 65){
             group[13] += 1;
       }
       else if (age >= 66 && age <= 70){
             group[14] += 1;
       }
       else if (age > 70){
             group[15] += 1;
       }
    }while(age != -1);
    for(int i = 0; i<15; i++){
        cout<<"For Group: "<<i+1<<" There are : "<<group[i]<<" of people in it."<<endl;
    }
    return 0;
}
